module golangtodo.com/m

go 1.20

require (
	github.com/fsnotify/fsnotify v1.6.0
	github.com/go-chi/chi/v5 v5.0.8
	github.com/google/uuid v1.3.0
	github.com/mattn/go-sqlite3 v1.14.17
)

require (
	github.com/decred/dcrd/dcrec/secp256k1/v4 v4.2.0 // indirect
	github.com/go-chi/jwtauth/v5 v5.1.1 // indirect
	github.com/goccy/go-json v0.10.2 // indirect
	github.com/lestrrat-go/blackmagic v1.0.1 // indirect
	github.com/lestrrat-go/httpcc v1.0.1 // indirect
	github.com/lestrrat-go/httprc v1.0.4 // indirect
	github.com/lestrrat-go/iter v1.0.2 // indirect
	github.com/lestrrat-go/jwx/v2 v2.0.11 // indirect
	github.com/lestrrat-go/option v1.0.1 // indirect
	github.com/segmentio/asm v1.2.0 // indirect
	golang.org/x/crypto v0.10.0 // indirect
	golang.org/x/sys v0.9.0 // indirect
)
